127.0.0.1 - - [11/Feb/2014:11:17:59 +0530] "GET / HTTP/1.1" 404 955
127.0.0.1 - - [11/Feb/2014:11:18:02 +0530] "GET /SpringSimpleWebApp/ HTTP/1.1" 200 549
127.0.0.1 - - [11/Feb/2014:11:18:02 +0530] "GET /favicon.ico HTTP/1.1" 404 988
127.0.0.1 - - [11/Feb/2014:11:18:03 +0530] "GET /favicon.ico HTTP/1.1" 404 988
127.0.0.1 - - [11/Feb/2014:11:18:49 +0530] "POST /SpringSimpleWebApp/;jsessionid=492F6F414925FE94A8345198FE680AE8 HTTP/1.1" 302 -
127.0.0.1 - - [11/Feb/2014:11:18:49 +0530] "GET /SpringSimpleWebApp/login.do?msg=Redirect+Successful%21%21 HTTP/1.1" 200 946
127.0.0.1 - - [11/Feb/2014:11:18:51 +0530] "POST /SpringSimpleWebApp/login.do?msg=Redirect+Successful%21%21 HTTP/1.1" 302 -
127.0.0.1 - - [11/Feb/2014:11:18:51 +0530] "GET /SpringSimpleWebApp/view.do?msg=Login+Successful%21%21 HTTP/1.1" 200 5772
127.0.0.1 - - [11/Feb/2014:11:18:58 +0530] "GET /SpringSimpleWebApp/add.do HTTP/1.1" 200 1524
127.0.0.1 - - [11/Feb/2014:12:11:39 +0530] "GET / HTTP/1.1" 404 955
127.0.0.1 - - [11/Feb/2014:12:11:39 +0530] "GET /SpringSimpleWebApp/ HTTP/1.1" 200 549
127.0.0.1 - - [11/Feb/2014:12:11:39 +0530] "GET /favicon.ico HTTP/1.1" 404 988
127.0.0.1 - - [11/Feb/2014:12:11:39 +0530] "GET /favicon.ico HTTP/1.1" 404 988
127.0.0.1 - - [11/Feb/2014:12:11:58 +0530] "POST /SpringSimpleWebApp/;jsessionid=24ADB096E51E0A3E1D1C1DCAD23DD2B0 HTTP/1.1" 302 -
127.0.0.1 - - [11/Feb/2014:12:11:59 +0530] "GET /SpringSimpleWebApp/login.do?msg=Redirect+Successful%21%21 HTTP/1.1" 200 946
127.0.0.1 - - [11/Feb/2014:12:12:01 +0530] "POST /SpringSimpleWebApp/login.do?msg=Redirect+Successful%21%21 HTTP/1.1" 302 -
127.0.0.1 - - [11/Feb/2014:12:12:01 +0530] "GET /SpringSimpleWebApp/view.do?msg=Login+Successful%21%21 HTTP/1.1" 500 7295
127.0.0.1 - - [11/Feb/2014:12:13:38 +0530] "GET /SpringSimpleWebApp/ HTTP/1.1" 200 549
127.0.0.1 - - [11/Feb/2014:12:13:38 +0530] "GET /favicon.ico HTTP/1.1" 404 988
127.0.0.1 - - [11/Feb/2014:12:13:38 +0530] "GET /favicon.ico HTTP/1.1" 404 988
127.0.0.1 - - [11/Feb/2014:12:14:27 +0530] "POST /SpringSimpleWebApp/;jsessionid=D07307BB112598ED7A82D8CF7D18D641 HTTP/1.1" 302 -
127.0.0.1 - - [11/Feb/2014:12:14:27 +0530] "GET /SpringSimpleWebApp/login.do?msg=Redirect+Successful%21%21 HTTP/1.1" 200 946
127.0.0.1 - - [11/Feb/2014:12:14:28 +0530] "POST /SpringSimpleWebApp/login.do?msg=Redirect+Successful%21%21 HTTP/1.1" 302 -
127.0.0.1 - - [11/Feb/2014:12:14:28 +0530] "GET /SpringSimpleWebApp/view.do?msg=Login+Successful%21%21 HTTP/1.1" 200 5772
127.0.0.1 - - [11/Feb/2014:12:14:33 +0530] "GET /SpringSimpleWebApp/add.do HTTP/1.1" 200 1725
127.0.0.1 - - [11/Feb/2014:12:14:54 +0530] "POST /SpringSimpleWebApp/add.do HTTP/1.1" 200 2705
127.0.0.1 - - [11/Feb/2014:12:14:56 +0530] "GET /SpringSimpleWebApp/view.do HTTP/1.1" 200 6203
127.0.0.1 - - [11/Feb/2014:12:16:32 +0530] "GET /SpringSimpleWebApp/view.do HTTP/1.1" 200 5637
127.0.0.1 - - [11/Feb/2014:12:17:12 +0530] "GET /SpringSimpleWebApp/view.do HTTP/1.1" 200 5901
127.0.0.1 - - [11/Feb/2014:12:23:40 +0530] "GET /SpringSimpleWebApp/ HTTP/1.1" 200 505
127.0.0.1 - - [11/Feb/2014:12:23:42 +0530] "POST /SpringSimpleWebApp/ HTTP/1.1" 302 -
127.0.0.1 - - [11/Feb/2014:12:23:42 +0530] "GET /SpringSimpleWebApp/login.do?msg=Redirect+Successful%21%21 HTTP/1.1" 200 946
127.0.0.1 - - [11/Feb/2014:12:23:43 +0530] "POST /SpringSimpleWebApp/login.do?msg=Redirect+Successful%21%21 HTTP/1.1" 302 -
127.0.0.1 - - [11/Feb/2014:12:23:43 +0530] "GET /SpringSimpleWebApp/view.do?msg=Login+Successful%21%21 HTTP/1.1" 200 5901
127.0.0.1 - - [11/Feb/2014:12:23:45 +0530] "GET /SpringSimpleWebApp/update.do?id=1 HTTP/1.1" 200 2549
127.0.0.1 - - [11/Feb/2014:12:24:28 +0530] "GET /SpringSimpleWebApp/ HTTP/1.1" 200 549
127.0.0.1 - - [11/Feb/2014:12:24:28 +0530] "GET /favicon.ico HTTP/1.1" 404 988
127.0.0.1 - - [11/Feb/2014:12:24:28 +0530] "GET /favicon.ico HTTP/1.1" 404 988
127.0.0.1 - - [11/Feb/2014:12:24:29 +0530] "POST /SpringSimpleWebApp/;jsessionid=29FD534F13B50D759674FC19E718552E HTTP/1.1" 302 -
127.0.0.1 - - [11/Feb/2014:12:24:29 +0530] "GET /SpringSimpleWebApp/login.do?msg=Redirect+Successful%21%21 HTTP/1.1" 200 946
127.0.0.1 - - [11/Feb/2014:12:24:30 +0530] "POST /SpringSimpleWebApp/login.do?msg=Redirect+Successful%21%21 HTTP/1.1" 302 -
127.0.0.1 - - [11/Feb/2014:12:24:30 +0530] "GET /SpringSimpleWebApp/view.do?msg=Login+Successful%21%21 HTTP/1.1" 200 5901
127.0.0.1 - - [11/Feb/2014:12:24:32 +0530] "GET /SpringSimpleWebApp/update.do?id=1 HTTP/1.1" 200 2624
127.0.0.1 - - [11/Feb/2014:12:24:42 +0530] "POST /SpringSimpleWebApp/update.do?id=1 HTTP/1.1" 302 -
127.0.0.1 - - [11/Feb/2014:12:24:42 +0530] "GET /SpringSimpleWebApp/view.do?msg=Update+Successful%21%21 HTTP/1.1" 200 5901
127.0.0.1 - - [11/Feb/2014:12:24:48 +0530] "GET /SpringSimpleWebApp/update.do?id=1 HTTP/1.1" 200 2624
127.0.0.1 - - [11/Feb/2014:12:24:52 +0530] "POST /SpringSimpleWebApp/update.do?id=1 HTTP/1.1" 302 -
127.0.0.1 - - [11/Feb/2014:12:24:52 +0530] "GET /SpringSimpleWebApp/view.do?msg=Update+Successful%21%21 HTTP/1.1" 200 5901
127.0.0.1 - - [11/Feb/2014:12:26:48 +0530] "GET / HTTP/1.1" 404 955
127.0.0.1 - - [11/Feb/2014:12:26:49 +0530] "GET /SpringSimpleWebApp/ HTTP/1.1" 200 505
127.0.0.1 - - [11/Feb/2014:12:26:50 +0530] "POST /SpringSimpleWebApp/ HTTP/1.1" 302 -
127.0.0.1 - - [11/Feb/2014:12:26:50 +0530] "GET /SpringSimpleWebApp/login.do?msg=Redirect+Successful%21%21 HTTP/1.1" 200 946
127.0.0.1 - - [11/Feb/2014:12:26:53 +0530] "POST /SpringSimpleWebApp/login.do?msg=Redirect+Successful%21%21 HTTP/1.1" 302 -
127.0.0.1 - - [11/Feb/2014:12:26:53 +0530] "GET /SpringSimpleWebApp/view.do?msg=Login+Successful%21%21 HTTP/1.1" 200 5901
127.0.0.1 - - [11/Feb/2014:12:26:54 +0530] "GET /SpringSimpleWebApp/update.do?id=1 HTTP/1.1" 200 2624
127.0.0.1 - - [11/Feb/2014:12:26:57 +0530] "POST /SpringSimpleWebApp/update.do?id=1 HTTP/1.1" 302 -
127.0.0.1 - - [11/Feb/2014:12:26:57 +0530] "GET /SpringSimpleWebApp/view.do?msg=Update+Successful%21%21 HTTP/1.1" 200 5901
127.0.0.1 - - [11/Feb/2014:12:26:59 +0530] "GET /SpringSimpleWebApp/update.do?id=1 HTTP/1.1" 200 2624
127.0.0.1 - - [11/Feb/2014:12:27:03 +0530] "POST /SpringSimpleWebApp/update.do?id=1 HTTP/1.1" 302 -
127.0.0.1 - - [11/Feb/2014:12:27:03 +0530] "GET /SpringSimpleWebApp/view.do?msg=Update+Successful%21%21 HTTP/1.1" 200 5901
127.0.0.1 - - [11/Feb/2014:12:27:39 +0530] "GET /SpringSimpleWebApp/ HTTP/1.1" 200 505
127.0.0.1 - - [11/Feb/2014:12:27:41 +0530] "POST /SpringSimpleWebApp/ HTTP/1.1" 302 -
127.0.0.1 - - [11/Feb/2014:12:27:41 +0530] "GET /SpringSimpleWebApp/login.do?msg=Redirect+Successful%21%21 HTTP/1.1" 200 946
127.0.0.1 - - [11/Feb/2014:12:27:42 +0530] "POST /SpringSimpleWebApp/login.do?msg=Redirect+Successful%21%21 HTTP/1.1" 302 -
127.0.0.1 - - [11/Feb/2014:12:27:43 +0530] "GET /SpringSimpleWebApp/view.do?msg=Login+Successful%21%21 HTTP/1.1" 200 5901
127.0.0.1 - - [11/Feb/2014:12:27:48 +0530] "GET /SpringSimpleWebApp/update.do?id=8 HTTP/1.1" 200 2638
127.0.0.1 - - [11/Feb/2014:12:27:57 +0530] "POST /SpringSimpleWebApp/update.do?id=8 HTTP/1.1" 302 -
127.0.0.1 - - [11/Feb/2014:12:27:57 +0530] "GET /SpringSimpleWebApp/view.do?msg=Update+Successful%21%21 HTTP/1.1" 200 5901
127.0.0.1 - - [11/Feb/2014:12:28:02 +0530] "GET /SpringSimpleWebApp/update.do?id=8 HTTP/1.1" 200 2638
127.0.0.1 - - [11/Feb/2014:12:28:05 +0530] "POST /SpringSimpleWebApp/update.do?id=8 HTTP/1.1" 302 -
127.0.0.1 - - [11/Feb/2014:12:28:06 +0530] "GET /SpringSimpleWebApp/view.do?msg=Update+Successful%21%21 HTTP/1.1" 200 5901
127.0.0.1 - - [11/Feb/2014:12:42:56 +0530] "GET / HTTP/1.1" 404 955
127.0.0.1 - - [11/Feb/2014:12:42:58 +0530] "GET /SpringSimpleWebApp/ HTTP/1.1" 200 549
127.0.0.1 - - [11/Feb/2014:12:42:58 +0530] "GET /favicon.ico HTTP/1.1" 404 988
127.0.0.1 - - [11/Feb/2014:12:42:58 +0530] "GET /favicon.ico HTTP/1.1" 404 988
127.0.0.1 - - [11/Feb/2014:12:44:32 +0530] "POST /SpringSimpleWebApp/;jsessionid=43EA48BB684B6ADD6724B25BC096E614 HTTP/1.1" 302 -
127.0.0.1 - - [11/Feb/2014:12:44:32 +0530] "GET /SpringSimpleWebApp/login.do?msg=Redirect+Successful%21%21 HTTP/1.1" 200 946
127.0.0.1 - - [11/Feb/2014:12:44:34 +0530] "POST /SpringSimpleWebApp/login.do?msg=Redirect+Successful%21%21 HTTP/1.1" 302 -
127.0.0.1 - - [11/Feb/2014:12:44:35 +0530] "GET /SpringSimpleWebApp/view.do?msg=Login+Successful%21%21 HTTP/1.1" 200 5901
127.0.0.1 - - [11/Feb/2014:12:44:37 +0530] "GET /SpringSimpleWebApp/update.do?id=1 HTTP/1.1" 200 2722
127.0.0.1 - - [11/Feb/2014:12:45:08 +0530] "GET /SpringSimpleWebApp/ HTTP/1.1" 200 549
127.0.0.1 - - [11/Feb/2014:12:45:08 +0530] "GET /favicon.ico HTTP/1.1" 404 988
127.0.0.1 - - [11/Feb/2014:12:45:08 +0530] "GET /favicon.ico HTTP/1.1" 404 988
127.0.0.1 - - [11/Feb/2014:12:45:09 +0530] "POST /SpringSimpleWebApp/;jsessionid=7B674129EFC45B76921A480DE8A1ECA8 HTTP/1.1" 302 -
127.0.0.1 - - [11/Feb/2014:12:45:09 +0530] "GET /SpringSimpleWebApp/login.do?msg=Redirect+Successful%21%21 HTTP/1.1" 200 946
127.0.0.1 - - [11/Feb/2014:12:45:10 +0530] "POST /SpringSimpleWebApp/login.do?msg=Redirect+Successful%21%21 HTTP/1.1" 302 -
127.0.0.1 - - [11/Feb/2014:12:45:10 +0530] "GET /SpringSimpleWebApp/view.do?msg=Login+Successful%21%21 HTTP/1.1" 200 5901
127.0.0.1 - - [11/Feb/2014:12:45:14 +0530] "GET /SpringSimpleWebApp/update.do?id=4 HTTP/1.1" 200 2761
127.0.0.1 - - [11/Feb/2014:12:45:49 +0530] "GET /SpringSimpleWebApp/ HTTP/1.1" 200 549
127.0.0.1 - - [11/Feb/2014:12:45:49 +0530] "GET /favicon.ico HTTP/1.1" 404 988
127.0.0.1 - - [11/Feb/2014:12:45:49 +0530] "GET /favicon.ico HTTP/1.1" 404 988
127.0.0.1 - - [11/Feb/2014:12:45:50 +0530] "POST /SpringSimpleWebApp/;jsessionid=2C6AB7E40C653236E4110548C49FBA10 HTTP/1.1" 302 -
127.0.0.1 - - [11/Feb/2014:12:45:50 +0530] "GET /SpringSimpleWebApp/login.do?msg=Redirect+Successful%21%21 HTTP/1.1" 200 946
127.0.0.1 - - [11/Feb/2014:12:45:51 +0530] "POST /SpringSimpleWebApp/login.do?msg=Redirect+Successful%21%21 HTTP/1.1" 302 -
127.0.0.1 - - [11/Feb/2014:12:45:51 +0530] "GET /SpringSimpleWebApp/view.do?msg=Login+Successful%21%21 HTTP/1.1" 200 5901
127.0.0.1 - - [11/Feb/2014:12:45:53 +0530] "GET /SpringSimpleWebApp/update.do?id=4 HTTP/1.1" 200 2760
127.0.0.1 - - [11/Feb/2014:12:47:29 +0530] "GET /SpringSimpleWebApp/ HTTP/1.1" 200 549
127.0.0.1 - - [11/Feb/2014:12:47:29 +0530] "GET /favicon.ico HTTP/1.1" 404 988
127.0.0.1 - - [11/Feb/2014:12:47:29 +0530] "GET /favicon.ico HTTP/1.1" 404 988
127.0.0.1 - - [11/Feb/2014:12:47:30 +0530] "POST /SpringSimpleWebApp/;jsessionid=AA1A1C11CC83379A83F6D05F0BBCF027 HTTP/1.1" 302 -
127.0.0.1 - - [11/Feb/2014:12:47:30 +0530] "GET /SpringSimpleWebApp/login.do?msg=Redirect+Successful%21%21 HTTP/1.1" 200 946
127.0.0.1 - - [11/Feb/2014:12:47:31 +0530] "POST /SpringSimpleWebApp/login.do?msg=Redirect+Successful%21%21 HTTP/1.1" 302 -
127.0.0.1 - - [11/Feb/2014:12:47:31 +0530] "GET /SpringSimpleWebApp/view.do?msg=Login+Successful%21%21 HTTP/1.1" 200 5901
127.0.0.1 - - [11/Feb/2014:12:47:33 +0530] "GET /SpringSimpleWebApp/update.do?id=10 HTTP/1.1" 200 2752
127.0.0.1 - - [11/Feb/2014:12:48:14 +0530] "GET /SpringSimpleWebApp/ HTTP/1.1" 200 549
127.0.0.1 - - [11/Feb/2014:12:48:14 +0530] "GET /favicon.ico HTTP/1.1" 404 988
127.0.0.1 - - [11/Feb/2014:12:48:14 +0530] "GET /favicon.ico HTTP/1.1" 404 988
127.0.0.1 - - [11/Feb/2014:12:48:15 +0530] "POST /SpringSimpleWebApp/;jsessionid=DF80C613574CD98CE2ACFB825F352E9A HTTP/1.1" 302 -
127.0.0.1 - - [11/Feb/2014:12:48:15 +0530] "GET /SpringSimpleWebApp/login.do?msg=Redirect+Successful%21%21 HTTP/1.1" 200 946
127.0.0.1 - - [11/Feb/2014:12:48:16 +0530] "POST /SpringSimpleWebApp/login.do?msg=Redirect+Successful%21%21 HTTP/1.1" 302 -
127.0.0.1 - - [11/Feb/2014:12:48:16 +0530] "GET /SpringSimpleWebApp/view.do?msg=Login+Successful%21%21 HTTP/1.1" 200 5901
127.0.0.1 - - [11/Feb/2014:12:48:17 +0530] "GET /SpringSimpleWebApp/update.do?id=4 HTTP/1.1" 200 2781
127.0.0.1 - - [11/Feb/2014:12:49:39 +0530] "GET /SpringSimpleWebApp/ HTTP/1.1" 200 549
127.0.0.1 - - [11/Feb/2014:12:49:39 +0530] "GET /favicon.ico HTTP/1.1" 404 988
127.0.0.1 - - [11/Feb/2014:12:49:39 +0530] "GET /favicon.ico HTTP/1.1" 404 988
127.0.0.1 - - [11/Feb/2014:12:49:40 +0530] "POST /SpringSimpleWebApp/;jsessionid=AAEDBA3F4D2D5FB8F5DA5D0B81FBAA02 HTTP/1.1" 302 -
127.0.0.1 - - [11/Feb/2014:12:49:40 +0530] "GET /SpringSimpleWebApp/login.do?msg=Redirect+Successful%21%21 HTTP/1.1" 200 946
127.0.0.1 - - [11/Feb/2014:12:49:42 +0530] "POST /SpringSimpleWebApp/login.do?msg=Redirect+Successful%21%21 HTTP/1.1" 302 -
127.0.0.1 - - [11/Feb/2014:12:49:42 +0530] "GET /SpringSimpleWebApp/view.do?msg=Login+Successful%21%21 HTTP/1.1" 200 5901
127.0.0.1 - - [11/Feb/2014:12:49:43 +0530] "GET /SpringSimpleWebApp/update.do?id=8 HTTP/1.1" 200 2754
127.0.0.1 - - [11/Feb/2014:12:49:56 +0530] "GET /SpringSimpleWebApp/ HTTP/1.1" 200 549
127.0.0.1 - - [11/Feb/2014:12:49:56 +0530] "GET /favicon.ico HTTP/1.1" 404 988
127.0.0.1 - - [11/Feb/2014:12:49:56 +0530] "GET /favicon.ico HTTP/1.1" 404 988
127.0.0.1 - - [11/Feb/2014:12:49:57 +0530] "POST /SpringSimpleWebApp/;jsessionid=74EF5047D2D86257E53058954FAD8B68 HTTP/1.1" 302 -
127.0.0.1 - - [11/Feb/2014:12:49:57 +0530] "GET /SpringSimpleWebApp/login.do?msg=Redirect+Successful%21%21 HTTP/1.1" 200 946
127.0.0.1 - - [11/Feb/2014:12:49:58 +0530] "POST /SpringSimpleWebApp/login.do?msg=Redirect+Successful%21%21 HTTP/1.1" 302 -
127.0.0.1 - - [11/Feb/2014:12:49:58 +0530] "GET /SpringSimpleWebApp/view.do?msg=Login+Successful%21%21 HTTP/1.1" 200 5901
127.0.0.1 - - [11/Feb/2014:12:50:00 +0530] "GET /SpringSimpleWebApp/update.do?id=10 HTTP/1.1" 200 2759
127.0.0.1 - - [11/Feb/2014:12:50:04 +0530] "POST /SpringSimpleWebApp/update.do?id=10 HTTP/1.1" 302 -
127.0.0.1 - - [11/Feb/2014:12:50:04 +0530] "GET /SpringSimpleWebApp/view.do?msg=Update+Successful%21%21 HTTP/1.1" 200 5901
127.0.0.1 - - [11/Feb/2014:12:50:06 +0530] "GET /SpringSimpleWebApp/update.do?id=10 HTTP/1.1" 200 2759
127.0.0.1 - - [11/Feb/2014:12:50:10 +0530] "POST /SpringSimpleWebApp/update.do?id=10 HTTP/1.1" 302 -
127.0.0.1 - - [11/Feb/2014:12:50:10 +0530] "GET /SpringSimpleWebApp/view.do?msg=Update+Successful%21%21 HTTP/1.1" 200 5901
127.0.0.1 - - [11/Feb/2014:12:53:54 +0530] "GET /SpringSimpleWebApp/ HTTP/1.1" 200 549
127.0.0.1 - - [11/Feb/2014:12:53:54 +0530] "GET /favicon.ico HTTP/1.1" 404 988
127.0.0.1 - - [11/Feb/2014:12:53:54 +0530] "GET /favicon.ico HTTP/1.1" 404 988
127.0.0.1 - - [11/Feb/2014:12:53:55 +0530] "POST /SpringSimpleWebApp/;jsessionid=B7D15F063B9F1D2614A693BBEDAE0685 HTTP/1.1" 302 -
127.0.0.1 - - [11/Feb/2014:12:53:55 +0530] "GET /SpringSimpleWebApp/login.do?msg=Redirect+Successful%21%21 HTTP/1.1" 200 946
127.0.0.1 - - [11/Feb/2014:12:53:56 +0530] "POST /SpringSimpleWebApp/login.do?msg=Redirect+Successful%21%21 HTTP/1.1" 302 -
127.0.0.1 - - [11/Feb/2014:12:53:56 +0530] "GET /SpringSimpleWebApp/view.do?msg=Login+Successful%21%21 HTTP/1.1" 500 5395
127.0.0.1 - - [11/Feb/2014:12:55:46 +0530] "GET /SpringSimpleWebApp/ HTTP/1.1" 200 549
127.0.0.1 - - [11/Feb/2014:12:55:46 +0530] "GET /favicon.ico HTTP/1.1" 404 988
127.0.0.1 - - [11/Feb/2014:12:55:46 +0530] "GET /favicon.ico HTTP/1.1" 404 988
127.0.0.1 - - [11/Feb/2014:12:55:46 +0530] "POST /SpringSimpleWebApp/;jsessionid=883FE90A6F13543845C9DA27131A5D2D HTTP/1.1" 302 -
127.0.0.1 - - [11/Feb/2014:12:55:46 +0530] "GET /SpringSimpleWebApp/login.do?msg=Redirect+Successful%21%21 HTTP/1.1" 200 946
127.0.0.1 - - [11/Feb/2014:12:55:47 +0530] "POST /SpringSimpleWebApp/login.do?msg=Redirect+Successful%21%21 HTTP/1.1" 302 -
127.0.0.1 - - [11/Feb/2014:12:55:48 +0530] "GET /SpringSimpleWebApp/view.do?msg=Login+Successful%21%21 HTTP/1.1" 200 6161
127.0.0.1 - - [11/Feb/2014:14:03:52 +0530] "GET / HTTP/1.1" 404 955
127.0.0.1 - - [11/Feb/2014:14:03:54 +0530] "GET /SpringSimpleWebApp/ HTTP/1.1" 200 505
127.0.0.1 - - [11/Feb/2014:14:04:04 +0530] "POST /SpringSimpleWebApp/ HTTP/1.1" 302 -
127.0.0.1 - - [11/Feb/2014:14:04:04 +0530] "GET /SpringSimpleWebApp/login.do?msg=Redirect+Successful%21%21 HTTP/1.1" 200 946
127.0.0.1 - - [11/Feb/2014:14:04:06 +0530] "POST /SpringSimpleWebApp/login.do?msg=Redirect+Successful%21%21 HTTP/1.1" 302 -
127.0.0.1 - - [11/Feb/2014:14:04:07 +0530] "GET /SpringSimpleWebApp/view.do?msg=Login+Successful%21%21 HTTP/1.1" 200 6876
127.0.0.1 - - [11/Feb/2014:14:04:14 +0530] "GET /SpringSimpleWebApp/delete.do?id=4 HTTP/1.1" 200 2529
127.0.0.1 - - [11/Feb/2014:14:08:55 +0530] "GET /SpringSimpleWebApp/ HTTP/1.1" 200 505
127.0.0.1 - - [11/Feb/2014:14:08:57 +0530] "POST /SpringSimpleWebApp/ HTTP/1.1" 302 -
127.0.0.1 - - [11/Feb/2014:14:08:57 +0530] "GET /SpringSimpleWebApp/login.do?msg=Redirect+Successful%21%21 HTTP/1.1" 200 946
127.0.0.1 - - [11/Feb/2014:14:08:59 +0530] "POST /SpringSimpleWebApp/login.do?msg=Redirect+Successful%21%21 HTTP/1.1" 302 -
127.0.0.1 - - [11/Feb/2014:14:08:59 +0530] "GET /SpringSimpleWebApp/view.do?msg=Login+Successful%21%21 HTTP/1.1" 200 6370
127.0.0.1 - - [11/Feb/2014:14:09:03 +0530] "GET /SpringSimpleWebApp/update.do?id=4 HTTP/1.1" 200 2774
127.0.0.1 - - [11/Feb/2014:14:09:05 +0530] "GET /SpringSimpleWebApp/view.do?msg=Login+Successful%21%21 HTTP/1.1" 200 6370
127.0.0.1 - - [11/Feb/2014:14:09:11 +0530] "GET /SpringSimpleWebApp/delete.do?id=delete HTTP/1.1" 500 3174
127.0.0.1 - - [11/Feb/2014:14:46:39 +0530] "GET /SpringSimpleWebApp/ HTTP/1.1" 200 549
127.0.0.1 - - [11/Feb/2014:14:46:39 +0530] "GET /favicon.ico HTTP/1.1" 404 988
127.0.0.1 - - [11/Feb/2014:14:46:39 +0530] "GET /favicon.ico HTTP/1.1" 404 988
127.0.0.1 - - [11/Feb/2014:14:48:25 +0530] "POST /SpringSimpleWebApp/;jsessionid=E023601C6235DCBDC9BAB86719449D9F HTTP/1.1" 302 -
127.0.0.1 - - [11/Feb/2014:14:48:25 +0530] "GET /SpringSimpleWebApp/login.do?msg=Redirect+Successful%21%21 HTTP/1.1" 200 946
127.0.0.1 - - [11/Feb/2014:14:48:26 +0530] "POST /SpringSimpleWebApp/login.do?msg=Redirect+Successful%21%21 HTTP/1.1" 302 -
127.0.0.1 - - [11/Feb/2014:14:48:27 +0530] "GET /SpringSimpleWebApp/view.do?msg=Login+Successful%21%21 HTTP/1.1" 200 6370
127.0.0.1 - - [11/Feb/2014:14:48:31 +0530] "GET /SpringSimpleWebApp/delete.do?id=delete HTTP/1.1" 500 3174
127.0.0.1 - - [11/Feb/2014:14:49:10 +0530] "GET /SpringSimpleWebApp/ HTTP/1.1" 200 549
127.0.0.1 - - [11/Feb/2014:14:49:10 +0530] "GET /favicon.ico HTTP/1.1" 404 988
127.0.0.1 - - [11/Feb/2014:14:49:10 +0530] "GET /favicon.ico HTTP/1.1" 404 988
127.0.0.1 - - [11/Feb/2014:14:49:50 +0530] "POST /SpringSimpleWebApp/;jsessionid=6B52CF477377140ADC2F8EBE39E3A790 HTTP/1.1" 302 -
127.0.0.1 - - [11/Feb/2014:14:49:50 +0530] "GET /SpringSimpleWebApp/login.do?msg=Redirect+Successful%21%21 HTTP/1.1" 200 946
127.0.0.1 - - [11/Feb/2014:14:49:51 +0530] "POST /SpringSimpleWebApp/login.do?msg=Redirect+Successful%21%21 HTTP/1.1" 302 -
127.0.0.1 - - [11/Feb/2014:14:49:51 +0530] "GET /SpringSimpleWebApp/view.do?msg=Login+Successful%21%21 HTTP/1.1" 200 6453
127.0.0.1 - - [11/Feb/2014:14:49:54 +0530] "GET /SpringSimpleWebApp/delete.do?id=delete HTTP/1.1" 500 3174
127.0.0.1 - - [11/Feb/2014:14:50:51 +0530] "GET /SpringSimpleWebApp/ HTTP/1.1" 200 505
127.0.0.1 - - [11/Feb/2014:14:52:06 +0530] "POST /SpringSimpleWebApp/ HTTP/1.1" 302 -
127.0.0.1 - - [11/Feb/2014:14:52:06 +0530] "GET /SpringSimpleWebApp/login.do?msg=Redirect+Successful%21%21 HTTP/1.1" 200 946
127.0.0.1 - - [11/Feb/2014:14:52:08 +0530] "POST /SpringSimpleWebApp/login.do?msg=Redirect+Successful%21%21 HTTP/1.1" 302 -
127.0.0.1 - - [11/Feb/2014:14:52:08 +0530] "GET /SpringSimpleWebApp/view.do?msg=Login+Successful%21%21 HTTP/1.1" 200 6505
127.0.0.1 - - [11/Feb/2014:14:52:14 +0530] "GET /SpringSimpleWebApp/delete.do?id=delete HTTP/1.1" 500 3174
127.0.0.1 - - [11/Feb/2014:14:53:22 +0530] "GET / HTTP/1.1" 404 955
127.0.0.1 - - [11/Feb/2014:14:53:23 +0530] "GET /SpringSimpleWebApp/ HTTP/1.1" 200 549
127.0.0.1 - - [11/Feb/2014:14:53:24 +0530] "GET /favicon.ico HTTP/1.1" 404 988
127.0.0.1 - - [11/Feb/2014:14:53:24 +0530] "GET /favicon.ico HTTP/1.1" 404 988
127.0.0.1 - - [11/Feb/2014:14:53:28 +0530] "POST /SpringSimpleWebApp/;jsessionid=7662F74D6BAB845919573E435DDA5A90 HTTP/1.1" 302 -
127.0.0.1 - - [11/Feb/2014:14:53:28 +0530] "GET /SpringSimpleWebApp/login.do?msg=Redirect+Successful%21%21 HTTP/1.1" 200 946
127.0.0.1 - - [11/Feb/2014:14:53:30 +0530] "POST /SpringSimpleWebApp/login.do?msg=Redirect+Successful%21%21 HTTP/1.1" 302 -
127.0.0.1 - - [11/Feb/2014:14:53:30 +0530] "GET /SpringSimpleWebApp/view.do?msg=Login+Successful%21%21 HTTP/1.1" 200 6505
127.0.0.1 - - [11/Feb/2014:14:55:25 +0530] "GET /SpringSimpleWebApp/delete.do?id=delete HTTP/1.1" 500 3174
127.0.0.1 - - [11/Feb/2014:14:56:14 +0530] "GET /SpringSimpleWebApp/ HTTP/1.1" 200 549
127.0.0.1 - - [11/Feb/2014:14:56:14 +0530] "GET /favicon.ico HTTP/1.1" 404 988
127.0.0.1 - - [11/Feb/2014:14:56:14 +0530] "GET /favicon.ico HTTP/1.1" 404 988
127.0.0.1 - - [11/Feb/2014:14:56:15 +0530] "POST /SpringSimpleWebApp/;jsessionid=8A2421A839A50ECA5D07D9F2C2B0E588 HTTP/1.1" 302 -
127.0.0.1 - - [11/Feb/2014:14:56:15 +0530] "GET /SpringSimpleWebApp/login.do?msg=Redirect+Successful%21%21 HTTP/1.1" 200 946
127.0.0.1 - - [11/Feb/2014:14:56:16 +0530] "POST /SpringSimpleWebApp/login.do?msg=Redirect+Successful%21%21 HTTP/1.1" 302 -
127.0.0.1 - - [11/Feb/2014:14:56:17 +0530] "GET /SpringSimpleWebApp/view.do?msg=Login+Successful%21%21 HTTP/1.1" 200 6427
127.0.0.1 - - [11/Feb/2014:14:56:20 +0530] "GET /SpringSimpleWebApp/delete.do?id=delete HTTP/1.1" 500 3174
127.0.0.1 - - [11/Feb/2014:15:02:19 +0530] "GET / HTTP/1.1" 404 955
127.0.0.1 - - [11/Feb/2014:15:02:20 +0530] "GET /SpringSimpleWebApp/ HTTP/1.1" 200 549
127.0.0.1 - - [11/Feb/2014:15:02:20 +0530] "GET /favicon.ico HTTP/1.1" 404 988
127.0.0.1 - - [11/Feb/2014:15:02:20 +0530] "GET /favicon.ico HTTP/1.1" 404 988
127.0.0.1 - - [11/Feb/2014:15:02:32 +0530] "POST /SpringSimpleWebApp/;jsessionid=4080C532E6B478D16853788CA00028AA HTTP/1.1" 302 -
127.0.0.1 - - [11/Feb/2014:15:02:32 +0530] "GET /SpringSimpleWebApp/login.do?msg=Redirect+Successful%21%21 HTTP/1.1" 200 946
127.0.0.1 - - [11/Feb/2014:15:02:34 +0530] "POST /SpringSimpleWebApp/login.do?msg=Redirect+Successful%21%21 HTTP/1.1" 302 -
127.0.0.1 - - [11/Feb/2014:15:02:35 +0530] "GET /SpringSimpleWebApp/view.do?msg=Login+Successful%21%21 HTTP/1.1" 200 6412
127.0.0.1 - - [11/Feb/2014:15:05:41 +0530] "GET / HTTP/1.1" 404 955
127.0.0.1 - - [11/Feb/2014:15:05:42 +0530] "GET /SpringSimpleWebApp/ HTTP/1.1" 200 505
127.0.0.1 - - [11/Feb/2014:15:07:53 +0530] "POST /SpringSimpleWebApp/ HTTP/1.1" 302 -
127.0.0.1 - - [11/Feb/2014:15:07:53 +0530] "GET /SpringSimpleWebApp/login.do?msg=Redirect+Successful%21%21 HTTP/1.1" 200 946
127.0.0.1 - - [11/Feb/2014:15:07:56 +0530] "POST /SpringSimpleWebApp/login.do?msg=Redirect+Successful%21%21 HTTP/1.1" 302 -
127.0.0.1 - - [11/Feb/2014:15:07:57 +0530] "GET /SpringSimpleWebApp/view.do?msg=Login+Successful%21%21 HTTP/1.1" 200 6414
127.0.0.1 - - [11/Feb/2014:15:08:09 +0530] "GET /SpringSimpleWebApp/delete.do?val=4,10,11,12,13 HTTP/1.1" 500 3046
127.0.0.1 - - [11/Feb/2014:15:08:11 +0530] "GET /SpringSimpleWebApp/view.do?msg=Login+Successful%21%21 HTTP/1.1" 200 6414
127.0.0.1 - - [11/Feb/2014:15:11:59 +0530] "GET / HTTP/1.1" 404 955
127.0.0.1 - - [11/Feb/2014:15:12:00 +0530] "GET /SpringSimpleWebApp/ HTTP/1.1" 200 505
127.0.0.1 - - [11/Feb/2014:15:12:45 +0530] "POST /SpringSimpleWebApp/ HTTP/1.1" 302 -
127.0.0.1 - - [11/Feb/2014:15:12:45 +0530] "GET /SpringSimpleWebApp/login.do?msg=Redirect+Successful%21%21 HTTP/1.1" 200 946
127.0.0.1 - - [11/Feb/2014:15:12:47 +0530] "POST /SpringSimpleWebApp/login.do?msg=Redirect+Successful%21%21 HTTP/1.1" 302 -
127.0.0.1 - - [11/Feb/2014:15:12:48 +0530] "GET /SpringSimpleWebApp/view.do?msg=Login+Successful%21%21 HTTP/1.1" 200 6414
127.0.0.1 - - [11/Feb/2014:15:12:56 +0530] "GET /SpringSimpleWebApp/delete.do?val=8,9,10 HTTP/1.1" 500 3046
127.0.0.1 - - [11/Feb/2014:15:36:25 +0530] "GET / HTTP/1.1" 404 955
127.0.0.1 - - [11/Feb/2014:15:36:26 +0530] "GET /SpringSimpleWebApp/ HTTP/1.1" 200 549
127.0.0.1 - - [11/Feb/2014:15:36:26 +0530] "GET /favicon.ico HTTP/1.1" 404 988
127.0.0.1 - - [11/Feb/2014:15:36:26 +0530] "GET /favicon.ico HTTP/1.1" 404 988
127.0.0.1 - - [11/Feb/2014:15:36:27 +0530] "POST /SpringSimpleWebApp/;jsessionid=6C1AA7CEA690E19FC9D73D2027395549 HTTP/1.1" 302 -
127.0.0.1 - - [11/Feb/2014:15:36:28 +0530] "GET /SpringSimpleWebApp/login.do?msg=Redirect+Successful%21%21 HTTP/1.1" 200 946
127.0.0.1 - - [11/Feb/2014:15:36:30 +0530] "POST /SpringSimpleWebApp/login.do?msg=Redirect+Successful%21%21 HTTP/1.1" 302 -
127.0.0.1 - - [11/Feb/2014:15:36:30 +0530] "GET /SpringSimpleWebApp/view.do?msg=Login+Successful%21%21 HTTP/1.1" 200 6414
127.0.0.1 - - [11/Feb/2014:15:36:37 +0530] "GET /SpringSimpleWebApp/delete.do?val=8,9,10 HTTP/1.1" 500 3046
127.0.0.1 - - [11/Feb/2014:15:44:10 +0530] "GET / HTTP/1.1" 404 955
127.0.0.1 - - [11/Feb/2014:15:44:17 +0530] "GET /SpringSimpleWebApp/ HTTP/1.1" 200 549
127.0.0.1 - - [11/Feb/2014:15:44:17 +0530] "GET /favicon.ico HTTP/1.1" 404 988
127.0.0.1 - - [11/Feb/2014:15:44:17 +0530] "GET /favicon.ico HTTP/1.1" 404 988
127.0.0.1 - - [11/Feb/2014:15:44:18 +0530] "POST /SpringSimpleWebApp/;jsessionid=15A1280EA8637C3A4B084C8C3D3A4329 HTTP/1.1" 302 -
127.0.0.1 - - [11/Feb/2014:15:44:18 +0530] "GET /SpringSimpleWebApp/login.do?msg=Redirect+Successful%21%21 HTTP/1.1" 200 946
127.0.0.1 - - [11/Feb/2014:15:44:20 +0530] "POST /SpringSimpleWebApp/login.do?msg=Redirect+Successful%21%21 HTTP/1.1" 302 -
127.0.0.1 - - [11/Feb/2014:15:44:20 +0530] "GET /SpringSimpleWebApp/view.do?msg=Login+Successful%21%21 HTTP/1.1" 200 6414
127.0.0.1 - - [11/Feb/2014:15:44:28 +0530] "GET /SpringSimpleWebApp/delete.do?val=8,9,10 HTTP/1.1" 500 3777
127.0.0.1 - - [11/Feb/2014:15:45:32 +0530] "GET / HTTP/1.1" 404 955
127.0.0.1 - - [11/Feb/2014:15:45:33 +0530] "GET /SpringSimpleWebApp/ HTTP/1.1" 200 549
127.0.0.1 - - [11/Feb/2014:15:45:33 +0530] "GET /favicon.ico HTTP/1.1" 404 988
127.0.0.1 - - [11/Feb/2014:15:45:33 +0530] "GET /favicon.ico HTTP/1.1" 404 988
127.0.0.1 - - [11/Feb/2014:15:45:34 +0530] "POST /SpringSimpleWebApp/;jsessionid=4552A67F3BC07CEC17706BBE5BECA326 HTTP/1.1" 302 -
127.0.0.1 - - [11/Feb/2014:15:45:34 +0530] "GET /SpringSimpleWebApp/login.do?msg=Redirect+Successful%21%21 HTTP/1.1" 200 946
127.0.0.1 - - [11/Feb/2014:15:45:36 +0530] "POST /SpringSimpleWebApp/login.do?msg=Redirect+Successful%21%21 HTTP/1.1" 302 -
127.0.0.1 - - [11/Feb/2014:15:45:36 +0530] "GET /SpringSimpleWebApp/view.do?msg=Login+Successful%21%21 HTTP/1.1" 200 6414
127.0.0.1 - - [11/Feb/2014:15:45:43 +0530] "GET /SpringSimpleWebApp/delete.do?val=8,9,10 HTTP/1.1" 500 3202
127.0.0.1 - - [11/Feb/2014:15:46:00 +0530] "GET / HTTP/1.1" 404 955
127.0.0.1 - - [11/Feb/2014:15:46:01 +0530] "GET /SpringSimpleWebApp/ HTTP/1.1" 200 549
127.0.0.1 - - [11/Feb/2014:15:46:01 +0530] "GET /favicon.ico HTTP/1.1" 404 988
127.0.0.1 - - [11/Feb/2014:15:46:01 +0530] "GET /favicon.ico HTTP/1.1" 404 988
127.0.0.1 - - [11/Feb/2014:15:47:00 +0530] "POST /SpringSimpleWebApp/;jsessionid=ADC452375C6275B0062DFFC68FB903A9 HTTP/1.1" 302 -
127.0.0.1 - - [11/Feb/2014:15:47:00 +0530] "GET /SpringSimpleWebApp/login.do?msg=Redirect+Successful%21%21 HTTP/1.1" 200 946
127.0.0.1 - - [11/Feb/2014:15:47:03 +0530] "POST /SpringSimpleWebApp/login.do?msg=Redirect+Successful%21%21 HTTP/1.1" 302 -
127.0.0.1 - - [11/Feb/2014:15:47:03 +0530] "GET /SpringSimpleWebApp/view.do?msg=Login+Successful%21%21 HTTP/1.1" 200 5978
127.0.0.1 - - [11/Feb/2014:15:47:11 +0530] "GET /SpringSimpleWebApp/delete.do?val=4,9,10 HTTP/1.1" 500 3046
127.0.0.1 - - [11/Feb/2014:15:51:22 +0530] "GET / HTTP/1.1" 404 955
127.0.0.1 - - [11/Feb/2014:15:51:23 +0530] "GET /SpringSimpleWebApp/ HTTP/1.1" 200 549
127.0.0.1 - - [11/Feb/2014:15:51:23 +0530] "GET /favicon.ico HTTP/1.1" 404 988
127.0.0.1 - - [11/Feb/2014:15:51:23 +0530] "GET /favicon.ico HTTP/1.1" 404 988
127.0.0.1 - - [11/Feb/2014:15:51:24 +0530] "POST /SpringSimpleWebApp/;jsessionid=7403DFB11C06E6B2FF1AA2D6A4E8E14F HTTP/1.1" 302 -
127.0.0.1 - - [11/Feb/2014:15:51:24 +0530] "GET /SpringSimpleWebApp/login.do?msg=Redirect+Successful%21%21 HTTP/1.1" 200 946
127.0.0.1 - - [11/Feb/2014:15:51:26 +0530] "POST /SpringSimpleWebApp/login.do?msg=Redirect+Successful%21%21 HTTP/1.1" 302 -
127.0.0.1 - - [11/Feb/2014:15:51:26 +0530] "GET /SpringSimpleWebApp/view.do?msg=Login+Successful%21%21 HTTP/1.1" 200 4644
127.0.0.1 - - [11/Feb/2014:15:51:31 +0530] "GET /SpringSimpleWebApp/add.do HTTP/1.1" 200 1725
127.0.0.1 - - [11/Feb/2014:15:53:47 +0530] "POST /SpringSimpleWebApp/add.do HTTP/1.1" 200 2782
127.0.0.1 - - [11/Feb/2014:15:53:49 +0530] "GET /SpringSimpleWebApp/view.do HTTP/1.1" 200 5084
127.0.0.1 - - [11/Feb/2014:15:53:56 +0530] "GET /SpringSimpleWebApp/delete.do?val=12,13 HTTP/1.1" 200 2651
127.0.0.1 - - [11/Feb/2014:15:53:58 +0530] "GET /SpringSimpleWebApp/view.do HTTP/1.1" 200 4198
127.0.0.1 - - [11/Feb/2014:15:56:16 +0530] "GET / HTTP/1.1" 404 955
127.0.0.1 - - [11/Feb/2014:15:56:16 +0530] "GET /SpringSimpleWebApp/ HTTP/1.1" 200 505
127.0.0.1 - - [11/Feb/2014:15:56:18 +0530] "POST /SpringSimpleWebApp/ HTTP/1.1" 302 -
127.0.0.1 - - [11/Feb/2014:15:56:18 +0530] "GET /SpringSimpleWebApp/login.do?msg=Redirect+Successful%21%21 HTTP/1.1" 200 946
127.0.0.1 - - [11/Feb/2014:15:56:20 +0530] "POST /SpringSimpleWebApp/login.do?msg=Redirect+Successful%21%21 HTTP/1.1" 302 -
127.0.0.1 - - [11/Feb/2014:15:56:20 +0530] "GET /SpringSimpleWebApp/view.do?msg=Login+Successful%21%21 HTTP/1.1" 200 4198
127.0.0.1 - - [11/Feb/2014:15:56:28 +0530] "GET /SpringSimpleWebApp/delete.do?val=11 HTTP/1.1" 200 2651
127.0.0.1 - - [11/Feb/2014:15:56:33 +0530] "GET /SpringSimpleWebApp/delete.do HTTP/1.1" 500 2944
127.0.0.1 - - [11/Feb/2014:15:56:42 +0530] "GET /SpringSimpleWebApp/view.do HTTP/1.1" 200 3758
127.0.0.1 - - [11/Feb/2014:16:00:10 +0530] "GET / HTTP/1.1" 404 955
127.0.0.1 - - [11/Feb/2014:16:00:10 +0530] "GET /SpringSimpleWebApp/ HTTP/1.1" 200 505
127.0.0.1 - - [11/Feb/2014:16:00:19 +0530] "POST /SpringSimpleWebApp/ HTTP/1.1" 302 -
127.0.0.1 - - [11/Feb/2014:16:00:19 +0530] "GET /SpringSimpleWebApp/login.do?msg=Redirect+Successful%21%21 HTTP/1.1" 200 946
127.0.0.1 - - [11/Feb/2014:16:00:21 +0530] "POST /SpringSimpleWebApp/login.do?msg=Redirect+Successful%21%21 HTTP/1.1" 302 -
127.0.0.1 - - [11/Feb/2014:16:00:22 +0530] "GET /SpringSimpleWebApp/view.do?msg=Login+Successful%21%21 HTTP/1.1" 200 3758
127.0.0.1 - - [11/Feb/2014:16:00:23 +0530] "GET /SpringSimpleWebApp/view.do HTTP/1.1" 200 3758
127.0.0.1 - - [11/Feb/2014:16:00:25 +0530] "GET /SpringSimpleWebApp/add.do HTTP/1.1" 200 1725
127.0.0.1 - - [11/Feb/2014:16:00:36 +0530] "POST /SpringSimpleWebApp/add.do HTTP/1.1" 200 2782
127.0.0.1 - - [11/Feb/2014:16:00:37 +0530] "GET /SpringSimpleWebApp/view.do HTTP/1.1" 200 4201
127.0.0.1 - - [11/Feb/2014:16:02:25 +0530] "GET /SpringSimpleWebApp/delete.do?val=15 HTTP/1.1" 200 2651
127.0.0.1 - - [11/Feb/2014:16:02:31 +0530] "GET /SpringSimpleWebApp/view.do HTTP/1.1" 200 3758
127.0.0.1 - - [11/Feb/2014:16:08:27 +0530] "GET /SpringSimpleWebApp/ HTTP/1.1" 200 549
127.0.0.1 - - [11/Feb/2014:16:08:27 +0530] "GET /favicon.ico HTTP/1.1" 404 988
127.0.0.1 - - [11/Feb/2014:16:08:27 +0530] "GET /favicon.ico HTTP/1.1" 404 988
127.0.0.1 - - [11/Feb/2014:16:08:28 +0530] "POST /SpringSimpleWebApp/;jsessionid=E73C8BEFB3C5B9FFFF0345CF580E1013 HTTP/1.1" 302 -
127.0.0.1 - - [11/Feb/2014:16:08:28 +0530] "GET /SpringSimpleWebApp/login.do?msg=Redirect+Successful%21%21 HTTP/1.1" 200 946
127.0.0.1 - - [11/Feb/2014:16:08:29 +0530] "POST /SpringSimpleWebApp/login.do?msg=Redirect+Successful%21%21 HTTP/1.1" 302 -
127.0.0.1 - - [11/Feb/2014:16:08:30 +0530] "GET /SpringSimpleWebApp/view.do?msg=Login+Successful%21%21 HTTP/1.1" 200 3731
127.0.0.1 - - [11/Feb/2014:16:08:32 +0530] "GET /SpringSimpleWebApp/add.do HTTP/1.1" 200 1725
127.0.0.1 - - [11/Feb/2014:16:08:45 +0530] "POST /SpringSimpleWebApp/add.do HTTP/1.1" 200 2748
127.0.0.1 - - [11/Feb/2014:16:08:46 +0530] "GET /SpringSimpleWebApp/view.do HTTP/1.1" 200 4168
127.0.0.1 - - [11/Feb/2014:16:08:50 +0530] "GET /SpringSimpleWebApp/update.do?id=15 HTTP/1.1" 200 2755
127.0.0.1 - - [11/Feb/2014:16:09:02 +0530] "POST /SpringSimpleWebApp/update.do?id=15 HTTP/1.1" 302 -
127.0.0.1 - - [11/Feb/2014:16:09:02 +0530] "GET /SpringSimpleWebApp/view.do?msg=Update+Successful%21%21 HTTP/1.1" 200 4171
127.0.0.1 - - [11/Feb/2014:16:09:06 +0530] "GET /SpringSimpleWebApp/view.do HTTP/1.1" 200 4171
127.0.0.1 - - [11/Feb/2014:16:09:09 +0530] "GET /SpringSimpleWebApp/delete.do?val=15 HTTP/1.1" 200 2617
127.0.0.1 - - [11/Feb/2014:16:09:14 +0530] "GET /SpringSimpleWebApp/view.do HTTP/1.1" 200 3731
127.0.0.1 - - [11/Feb/2014:16:10:29 +0530] "GET /SpringSimpleWebApp/view.do HTTP/1.1" 200 3774
127.0.0.1 - - [11/Feb/2014:16:22:50 +0530] "GET /SpringSimpleWebApp/ HTTP/1.1" 200 505
127.0.0.1 - - [11/Feb/2014:16:22:51 +0530] "POST /SpringSimpleWebApp/ HTTP/1.1" 302 -
127.0.0.1 - - [11/Feb/2014:16:22:51 +0530] "GET /SpringSimpleWebApp/login.do?msg=Redirect+Successful%21%21 HTTP/1.1" 200 946
127.0.0.1 - - [11/Feb/2014:16:22:52 +0530] "POST /SpringSimpleWebApp/login.do?msg=Redirect+Successful%21%21 HTTP/1.1" 302 -
127.0.0.1 - - [11/Feb/2014:16:22:53 +0530] "GET /SpringSimpleWebApp/view.do?msg=Login+Successful%21%21 HTTP/1.1" 200 3675
127.0.0.1 - - [11/Feb/2014:16:23:24 +0530] "GET /SpringSimpleWebApp/ HTTP/1.1" 200 549
127.0.0.1 - - [11/Feb/2014:16:23:24 +0530] "GET /favicon.ico HTTP/1.1" 404 988
127.0.0.1 - - [11/Feb/2014:16:23:24 +0530] "GET /favicon.ico HTTP/1.1" 404 988
127.0.0.1 - - [11/Feb/2014:16:23:25 +0530] "POST /SpringSimpleWebApp/;jsessionid=57686D84A58C46C8CA359B70F00CD02F HTTP/1.1" 302 -
127.0.0.1 - - [11/Feb/2014:16:23:25 +0530] "GET /SpringSimpleWebApp/login.do?msg=Redirect+Successful%21%21 HTTP/1.1" 200 946
127.0.0.1 - - [11/Feb/2014:16:23:26 +0530] "POST /SpringSimpleWebApp/login.do?msg=Redirect+Successful%21%21 HTTP/1.1" 302 -
127.0.0.1 - - [11/Feb/2014:16:23:26 +0530] "GET /SpringSimpleWebApp/view.do?msg=Login+Successful%21%21 HTTP/1.1" 200 3664
127.0.0.1 - - [11/Feb/2014:16:23:43 +0530] "GET /SpringSimpleWebApp/view.do?msg=Login+Successful%21%21 HTTP/1.1" 200 3663
127.0.0.1 - - [11/Feb/2014:16:24:18 +0530] "GET /SpringSimpleWebApp/view.do?msg=Login+Successful%21%21 HTTP/1.1" 200 3675
127.0.0.1 - - [11/Feb/2014:16:24:19 +0530] "GET /SpringSimpleWebApp/add.do HTTP/1.1" 200 1725
127.0.0.1 - - [11/Feb/2014:16:24:21 +0530] "GET /SpringSimpleWebApp/view.do HTTP/1.1" 200 3675
127.0.0.1 - - [11/Feb/2014:16:25:26 +0530] "GET /SpringSimpleWebApp/ HTTP/1.1" 200 505
127.0.0.1 - - [11/Feb/2014:16:25:28 +0530] "POST /SpringSimpleWebApp/ HTTP/1.1" 302 -
127.0.0.1 - - [11/Feb/2014:16:25:28 +0530] "GET /SpringSimpleWebApp/login.do?msg=Redirect+Successful%21%21 HTTP/1.1" 200 946
127.0.0.1 - - [11/Feb/2014:16:25:29 +0530] "POST /SpringSimpleWebApp/login.do?msg=Redirect+Successful%21%21 HTTP/1.1" 302 -
127.0.0.1 - - [11/Feb/2014:16:25:29 +0530] "GET /SpringSimpleWebApp/view.do?msg=Login+Successful%21%21 HTTP/1.1" 200 3869
127.0.0.1 - - [11/Feb/2014:16:25:44 +0530] "GET /SpringSimpleWebApp/ HTTP/1.1" 200 505
127.0.0.1 - - [11/Feb/2014:16:25:48 +0530] "POST /SpringSimpleWebApp/ HTTP/1.1" 302 -
127.0.0.1 - - [11/Feb/2014:16:25:48 +0530] "GET /SpringSimpleWebApp/login.do?msg=Redirect+Successful%21%21 HTTP/1.1" 200 946
127.0.0.1 - - [11/Feb/2014:16:25:50 +0530] "POST /SpringSimpleWebApp/login.do?msg=Redirect+Successful%21%21 HTTP/1.1" 302 -
127.0.0.1 - - [11/Feb/2014:16:25:50 +0530] "GET /SpringSimpleWebApp/view.do?msg=Login+Successful%21%21 HTTP/1.1" 200 3824
127.0.0.1 - - [11/Feb/2014:17:11:42 +0530] "GET /SpringSimpleWebApp/ HTTP/1.1" 200 505
127.0.0.1 - - [11/Feb/2014:17:11:44 +0530] "POST /SpringSimpleWebApp/ HTTP/1.1" 302 -
127.0.0.1 - - [11/Feb/2014:17:11:44 +0530] "GET /SpringSimpleWebApp/login.do?msg=Redirect+Successful%21%21 HTTP/1.1" 200 946
127.0.0.1 - - [11/Feb/2014:17:11:45 +0530] "POST /SpringSimpleWebApp/login.do?msg=Redirect+Successful%21%21 HTTP/1.1" 302 -
127.0.0.1 - - [11/Feb/2014:17:11:45 +0530] "GET /SpringSimpleWebApp/view.do?msg=Login+Successful%21%21 HTTP/1.1" 200 3884
127.0.0.1 - - [11/Feb/2014:17:12:11 +0530] "GET /SpringSimpleWebApp/ HTTP/1.1" 200 549
127.0.0.1 - - [11/Feb/2014:17:12:11 +0530] "GET /favicon.ico HTTP/1.1" 404 988
127.0.0.1 - - [11/Feb/2014:17:12:11 +0530] "GET /favicon.ico HTTP/1.1" 404 988
127.0.0.1 - - [11/Feb/2014:17:12:12 +0530] "POST /SpringSimpleWebApp/;jsessionid=938D42DF38079662D338FCE3EF842AC6 HTTP/1.1" 302 -
127.0.0.1 - - [11/Feb/2014:17:12:12 +0530] "GET /SpringSimpleWebApp/login.do?msg=Redirect+Successful%21%21 HTTP/1.1" 200 946
127.0.0.1 - - [11/Feb/2014:17:12:14 +0530] "POST /SpringSimpleWebApp/login.do?msg=Redirect+Successful%21%21 HTTP/1.1" 302 -
127.0.0.1 - - [11/Feb/2014:17:12:14 +0530] "GET /SpringSimpleWebApp/view.do?msg=Login+Successful%21%21 HTTP/1.1" 200 3884
127.0.0.1 - - [11/Feb/2014:17:12:45 +0530] "GET /SpringSimpleWebApp/ HTTP/1.1" 200 505
127.0.0.1 - - [11/Feb/2014:17:12:47 +0530] "POST /SpringSimpleWebApp/ HTTP/1.1" 302 -
127.0.0.1 - - [11/Feb/2014:17:12:47 +0530] "GET /SpringSimpleWebApp/login.do?msg=Redirect+Successful%21%21 HTTP/1.1" 200 946
127.0.0.1 - - [11/Feb/2014:17:12:48 +0530] "POST /SpringSimpleWebApp/login.do?msg=Redirect+Successful%21%21 HTTP/1.1" 302 -
127.0.0.1 - - [11/Feb/2014:17:12:48 +0530] "GET /SpringSimpleWebApp/view.do?msg=Login+Successful%21%21 HTTP/1.1" 200 3889
127.0.0.1 - - [11/Feb/2014:17:13:14 +0530] "GET /SpringSimpleWebApp/view.do?msg=Login+Successful%21%21 HTTP/1.1" 200 3860
127.0.0.1 - - [11/Feb/2014:17:13:29 +0530] "GET /SpringSimpleWebApp/ HTTP/1.1" 200 505
127.0.0.1 - - [11/Feb/2014:17:13:31 +0530] "POST /SpringSimpleWebApp/ HTTP/1.1" 302 -
127.0.0.1 - - [11/Feb/2014:17:13:31 +0530] "GET /SpringSimpleWebApp/login.do?msg=Redirect+Successful%21%21 HTTP/1.1" 200 946
127.0.0.1 - - [11/Feb/2014:17:13:33 +0530] "POST /SpringSimpleWebApp/login.do?msg=Redirect+Successful%21%21 HTTP/1.1" 302 -
127.0.0.1 - - [11/Feb/2014:17:13:33 +0530] "GET /SpringSimpleWebApp/view.do?msg=Login+Successful%21%21 HTTP/1.1" 200 3860
127.0.0.1 - - [11/Feb/2014:17:14:10 +0530] "GET /SpringSimpleWebApp/ HTTP/1.1" 200 549
127.0.0.1 - - [11/Feb/2014:17:14:10 +0530] "GET /favicon.ico HTTP/1.1" 404 988
127.0.0.1 - - [11/Feb/2014:17:14:10 +0530] "GET /favicon.ico HTTP/1.1" 404 988
127.0.0.1 - - [11/Feb/2014:17:14:12 +0530] "POST /SpringSimpleWebApp/;jsessionid=13D2F7A79BD0194C96EB6FB47E83577E HTTP/1.1" 302 -
127.0.0.1 - - [11/Feb/2014:17:14:12 +0530] "GET /SpringSimpleWebApp/login.do?msg=Redirect+Successful%21%21 HTTP/1.1" 200 946
127.0.0.1 - - [11/Feb/2014:17:14:13 +0530] "POST /SpringSimpleWebApp/login.do?msg=Redirect+Successful%21%21 HTTP/1.1" 302 -
127.0.0.1 - - [11/Feb/2014:17:14:13 +0530] "GET /SpringSimpleWebApp/view.do?msg=Login+Successful%21%21 HTTP/1.1" 200 3860
127.0.0.1 - - [11/Feb/2014:17:16:33 +0530] "GET /SpringSimpleWebApp/ HTTP/1.1" 200 549
127.0.0.1 - - [11/Feb/2014:17:16:33 +0530] "GET /favicon.ico HTTP/1.1" 404 988
127.0.0.1 - - [11/Feb/2014:17:16:33 +0530] "GET /favicon.ico HTTP/1.1" 404 988
127.0.0.1 - - [11/Feb/2014:17:16:34 +0530] "POST /SpringSimpleWebApp/;jsessionid=9CFE6EA86DEC62603E5DB6664B4597D1 HTTP/1.1" 302 -
127.0.0.1 - - [11/Feb/2014:17:16:34 +0530] "GET /SpringSimpleWebApp/login.do?msg=Redirect+Successful%21%21 HTTP/1.1" 200 946
127.0.0.1 - - [11/Feb/2014:17:16:35 +0530] "POST /SpringSimpleWebApp/login.do?msg=Redirect+Successful%21%21 HTTP/1.1" 302 -
127.0.0.1 - - [11/Feb/2014:17:16:36 +0530] "GET /SpringSimpleWebApp/view.do?msg=Login+Successful%21%21 HTTP/1.1" 200 3815
127.0.0.1 - - [11/Feb/2014:17:18:00 +0530] "GET /SpringSimpleWebApp/ HTTP/1.1" 200 549
127.0.0.1 - - [11/Feb/2014:17:18:00 +0530] "GET /favicon.ico HTTP/1.1" 404 988
127.0.0.1 - - [11/Feb/2014:17:18:00 +0530] "GET /favicon.ico HTTP/1.1" 404 988
127.0.0.1 - - [11/Feb/2014:17:18:03 +0530] "POST /SpringSimpleWebApp/;jsessionid=CB7D6255121E25D99382902204B234BB HTTP/1.1" 302 -
127.0.0.1 - - [11/Feb/2014:17:18:03 +0530] "GET /SpringSimpleWebApp/login.do?msg=Redirect+Successful%21%21 HTTP/1.1" 200 946
127.0.0.1 - - [11/Feb/2014:17:18:04 +0530] "POST /SpringSimpleWebApp/login.do?msg=Redirect+Successful%21%21 HTTP/1.1" 302 -
127.0.0.1 - - [11/Feb/2014:17:18:05 +0530] "GET /SpringSimpleWebApp/view.do?msg=Login+Successful%21%21 HTTP/1.1" 200 3573
127.0.0.1 - - [11/Feb/2014:17:18:30 +0530] "GET /SpringSimpleWebApp/ HTTP/1.1" 200 549
127.0.0.1 - - [11/Feb/2014:17:18:30 +0530] "GET /favicon.ico HTTP/1.1" 404 988
127.0.0.1 - - [11/Feb/2014:17:18:30 +0530] "GET /favicon.ico HTTP/1.1" 404 988
127.0.0.1 - - [11/Feb/2014:17:18:31 +0530] "POST /SpringSimpleWebApp/;jsessionid=4CEB4D07F892A142C126A58343180299 HTTP/1.1" 302 -
127.0.0.1 - - [11/Feb/2014:17:18:31 +0530] "GET /SpringSimpleWebApp/login.do?msg=Redirect+Successful%21%21 HTTP/1.1" 200 946
127.0.0.1 - - [11/Feb/2014:17:18:32 +0530] "POST /SpringSimpleWebApp/login.do?msg=Redirect+Successful%21%21 HTTP/1.1" 302 -
127.0.0.1 - - [11/Feb/2014:17:18:33 +0530] "GET /SpringSimpleWebApp/view.do?msg=Login+Successful%21%21 HTTP/1.1" 200 3573
127.0.0.1 - - [11/Feb/2014:17:21:23 +0530] "GET /SpringSimpleWebApp/ HTTP/1.1" 200 549
127.0.0.1 - - [11/Feb/2014:17:21:23 +0530] "GET /favicon.ico HTTP/1.1" 404 988
127.0.0.1 - - [11/Feb/2014:17:21:23 +0530] "GET /favicon.ico HTTP/1.1" 404 988
127.0.0.1 - - [11/Feb/2014:17:21:24 +0530] "POST /SpringSimpleWebApp/;jsessionid=F3F339AE6126BAA118E19873625BF2B7 HTTP/1.1" 302 -
127.0.0.1 - - [11/Feb/2014:17:21:24 +0530] "GET /SpringSimpleWebApp/login.do?msg=Redirect+Successful%21%21 HTTP/1.1" 200 946
127.0.0.1 - - [11/Feb/2014:17:21:25 +0530] "POST /SpringSimpleWebApp/login.do?msg=Redirect+Successful%21%21 HTTP/1.1" 302 -
127.0.0.1 - - [11/Feb/2014:17:21:25 +0530] "GET /SpringSimpleWebApp/view.do?msg=Login+Successful%21%21 HTTP/1.1" 200 3571
127.0.0.1 - - [11/Feb/2014:17:22:10 +0530] "GET / HTTP/1.1" 404 955
127.0.0.1 - - [11/Feb/2014:17:22:13 +0530] "GET /SpringSimpleWebApp/ HTTP/1.1" 200 549
127.0.0.1 - - [11/Feb/2014:17:22:13 +0530] "GET /favicon.ico HTTP/1.1" 404 988
127.0.0.1 - - [11/Feb/2014:17:22:13 +0530] "GET /favicon.ico HTTP/1.1" 404 988
127.0.0.1 - - [11/Feb/2014:17:22:15 +0530] "POST /SpringSimpleWebApp/;jsessionid=B293030A11FDF81ECCF3CE6FF6CD8DAE HTTP/1.1" 302 -
127.0.0.1 - - [11/Feb/2014:17:22:15 +0530] "GET /SpringSimpleWebApp/login.do?msg=Redirect+Successful%21%21 HTTP/1.1" 200 946
127.0.0.1 - - [11/Feb/2014:17:22:17 +0530] "POST /SpringSimpleWebApp/login.do?msg=Redirect+Successful%21%21 HTTP/1.1" 302 -
127.0.0.1 - - [11/Feb/2014:17:22:17 +0530] "GET /SpringSimpleWebApp/view.do?msg=Login+Successful%21%21 HTTP/1.1" 200 3571
127.0.0.1 - - [11/Feb/2014:17:22:44 +0530] "GET /SpringSimpleWebApp/ HTTP/1.1" 200 549
127.0.0.1 - - [11/Feb/2014:17:22:44 +0530] "GET /favicon.ico HTTP/1.1" 404 988
127.0.0.1 - - [11/Feb/2014:17:22:44 +0530] "GET /favicon.ico HTTP/1.1" 404 988
127.0.0.1 - - [11/Feb/2014:17:22:45 +0530] "POST /SpringSimpleWebApp/;jsessionid=1216B4815003A8D33E7C6BC6244FF36A HTTP/1.1" 302 -
127.0.0.1 - - [11/Feb/2014:17:22:45 +0530] "GET /SpringSimpleWebApp/login.do?msg=Redirect+Successful%21%21 HTTP/1.1" 200 946
127.0.0.1 - - [11/Feb/2014:17:22:46 +0530] "POST /SpringSimpleWebApp/login.do?msg=Redirect+Successful%21%21 HTTP/1.1" 302 -
127.0.0.1 - - [11/Feb/2014:17:22:48 +0530] "GET /SpringSimpleWebApp/view.do?msg=Login+Successful%21%21 HTTP/1.1" 200 3594
127.0.0.1 - - [11/Feb/2014:17:23:59 +0530] "GET /SpringSimpleWebApp/ HTTP/1.1" 200 549
127.0.0.1 - - [11/Feb/2014:17:23:59 +0530] "GET /favicon.ico HTTP/1.1" 404 988
127.0.0.1 - - [11/Feb/2014:17:23:59 +0530] "GET /favicon.ico HTTP/1.1" 404 988
127.0.0.1 - - [11/Feb/2014:17:24:00 +0530] "POST /SpringSimpleWebApp/;jsessionid=27DFB9CF6453073B076603DEC54BD678 HTTP/1.1" 302 -
127.0.0.1 - - [11/Feb/2014:17:24:00 +0530] "GET /SpringSimpleWebApp/login.do?msg=Redirect+Successful%21%21 HTTP/1.1" 200 946
127.0.0.1 - - [11/Feb/2014:17:24:00 +0530] "POST /SpringSimpleWebApp/login.do?msg=Redirect+Successful%21%21 HTTP/1.1" 302 -
127.0.0.1 - - [11/Feb/2014:17:24:01 +0530] "GET /SpringSimpleWebApp/view.do?msg=Login+Successful%21%21 HTTP/1.1" 200 3529
127.0.0.1 - - [11/Feb/2014:17:24:28 +0530] "GET /SpringSimpleWebApp/ HTTP/1.1" 200 549
127.0.0.1 - - [11/Feb/2014:17:24:28 +0530] "GET /favicon.ico HTTP/1.1" 404 988
127.0.0.1 - - [11/Feb/2014:17:24:28 +0530] "GET /favicon.ico HTTP/1.1" 404 988
127.0.0.1 - - [11/Feb/2014:17:24:29 +0530] "POST /SpringSimpleWebApp/;jsessionid=EA25928568AF6C3692CC185EAA2998BD HTTP/1.1" 302 -
127.0.0.1 - - [11/Feb/2014:17:24:29 +0530] "GET /SpringSimpleWebApp/login.do?msg=Redirect+Successful%21%21 HTTP/1.1" 200 946
127.0.0.1 - - [11/Feb/2014:17:24:30 +0530] "POST /SpringSimpleWebApp/login.do?msg=Redirect+Successful%21%21 HTTP/1.1" 302 -
127.0.0.1 - - [11/Feb/2014:17:24:30 +0530] "GET /SpringSimpleWebApp/view.do?msg=Login+Successful%21%21 HTTP/1.1" 200 3558
127.0.0.1 - - [11/Feb/2014:17:25:11 +0530] "GET /SpringSimpleWebApp/ HTTP/1.1" 200 549
127.0.0.1 - - [11/Feb/2014:17:25:11 +0530] "GET /favicon.ico HTTP/1.1" 404 988
127.0.0.1 - - [11/Feb/2014:17:25:11 +0530] "GET /favicon.ico HTTP/1.1" 404 988
127.0.0.1 - - [11/Feb/2014:17:25:12 +0530] "POST /SpringSimpleWebApp/;jsessionid=2E1FEC25C277A3962A7842E8EB95B571 HTTP/1.1" 302 -
127.0.0.1 - - [11/Feb/2014:17:25:12 +0530] "GET /SpringSimpleWebApp/login.do?msg=Redirect+Successful%21%21 HTTP/1.1" 200 946
127.0.0.1 - - [11/Feb/2014:17:25:13 +0530] "POST /SpringSimpleWebApp/login.do?msg=Redirect+Successful%21%21 HTTP/1.1" 302 -
127.0.0.1 - - [11/Feb/2014:17:25:13 +0530] "GET /SpringSimpleWebApp/view.do?msg=Login+Successful%21%21 HTTP/1.1" 200 3601
127.0.0.1 - - [11/Feb/2014:17:25:36 +0530] "GET /SpringSimpleWebApp/ HTTP/1.1" 200 549
127.0.0.1 - - [11/Feb/2014:17:25:36 +0530] "GET /favicon.ico HTTP/1.1" 404 988
127.0.0.1 - - [11/Feb/2014:17:25:37 +0530] "GET /favicon.ico HTTP/1.1" 404 988
127.0.0.1 - - [11/Feb/2014:17:25:37 +0530] "POST /SpringSimpleWebApp/;jsessionid=0439EEF265893AFA7BB7CC8654631B39 HTTP/1.1" 302 -
127.0.0.1 - - [11/Feb/2014:17:25:37 +0530] "GET /SpringSimpleWebApp/login.do?msg=Redirect+Successful%21%21 HTTP/1.1" 200 946
127.0.0.1 - - [11/Feb/2014:17:25:39 +0530] "POST /SpringSimpleWebApp/login.do?msg=Redirect+Successful%21%21 HTTP/1.1" 302 -
127.0.0.1 - - [11/Feb/2014:17:25:40 +0530] "GET /SpringSimpleWebApp/view.do?msg=Login+Successful%21%21 HTTP/1.1" 200 3615
127.0.0.1 - - [11/Feb/2014:17:25:54 +0530] "GET /SpringSimpleWebApp/ HTTP/1.1" 200 505
127.0.0.1 - - [11/Feb/2014:17:25:56 +0530] "POST /SpringSimpleWebApp/ HTTP/1.1" 302 -
127.0.0.1 - - [11/Feb/2014:17:25:56 +0530] "GET /SpringSimpleWebApp/login.do?msg=Redirect+Successful%21%21 HTTP/1.1" 200 946
127.0.0.1 - - [11/Feb/2014:17:25:57 +0530] "POST /SpringSimpleWebApp/login.do?msg=Redirect+Successful%21%21 HTTP/1.1" 302 -
127.0.0.1 - - [11/Feb/2014:17:25:57 +0530] "GET /SpringSimpleWebApp/view.do?msg=Login+Successful%21%21 HTTP/1.1" 200 3615
127.0.0.1 - - [11/Feb/2014:17:26:20 +0530] "GET /SpringSimpleWebApp/ HTTP/1.1" 200 549
127.0.0.1 - - [11/Feb/2014:17:26:20 +0530] "GET /favicon.ico HTTP/1.1" 404 988
127.0.0.1 - - [11/Feb/2014:17:26:20 +0530] "GET /favicon.ico HTTP/1.1" 404 988
127.0.0.1 - - [11/Feb/2014:17:26:21 +0530] "POST /SpringSimpleWebApp/;jsessionid=1E0C5E4CF181B27B4CC6661C6C7B3160 HTTP/1.1" 302 -
127.0.0.1 - - [11/Feb/2014:17:26:21 +0530] "GET /SpringSimpleWebApp/login.do?msg=Redirect+Successful%21%21 HTTP/1.1" 200 946
127.0.0.1 - - [11/Feb/2014:17:26:22 +0530] "POST /SpringSimpleWebApp/login.do?msg=Redirect+Successful%21%21 HTTP/1.1" 302 -
127.0.0.1 - - [11/Feb/2014:17:26:22 +0530] "GET /SpringSimpleWebApp/view.do?msg=Login+Successful%21%21 HTTP/1.1" 200 3615
127.0.0.1 - - [11/Feb/2014:17:26:59 +0530] "GET / HTTP/1.1" 404 955
127.0.0.1 - - [11/Feb/2014:17:27:00 +0530] "GET /SpringSimpleWebApp/ HTTP/1.1" 200 549
127.0.0.1 - - [11/Feb/2014:17:27:00 +0530] "GET /favicon.ico HTTP/1.1" 404 988
127.0.0.1 - - [11/Feb/2014:17:27:00 +0530] "GET /favicon.ico HTTP/1.1" 404 988
127.0.0.1 - - [11/Feb/2014:17:27:01 +0530] "POST /SpringSimpleWebApp/;jsessionid=594E847BB7E84349F3D32C33E8CAD135 HTTP/1.1" 302 -
127.0.0.1 - - [11/Feb/2014:17:27:01 +0530] "GET /SpringSimpleWebApp/login.do?msg=Redirect+Successful%21%21 HTTP/1.1" 200 946
127.0.0.1 - - [11/Feb/2014:17:27:03 +0530] "POST /SpringSimpleWebApp/login.do?msg=Redirect+Successful%21%21 HTTP/1.1" 302 -
127.0.0.1 - - [11/Feb/2014:17:27:04 +0530] "GET /SpringSimpleWebApp/view.do?msg=Login+Successful%21%21 HTTP/1.1" 200 3546
127.0.0.1 - - [11/Feb/2014:17:27:17 +0530] "GET /SpringSimpleWebApp/ HTTP/1.1" 200 549
127.0.0.1 - - [11/Feb/2014:17:27:17 +0530] "GET /favicon.ico HTTP/1.1" 404 988
127.0.0.1 - - [11/Feb/2014:17:27:17 +0530] "GET /favicon.ico HTTP/1.1" 404 988
127.0.0.1 - - [11/Feb/2014:17:27:18 +0530] "POST /SpringSimpleWebApp/;jsessionid=9C5484A013664EC34300C912E4E78D8F HTTP/1.1" 302 -
127.0.0.1 - - [11/Feb/2014:17:27:18 +0530] "GET /SpringSimpleWebApp/login.do?msg=Redirect+Successful%21%21 HTTP/1.1" 200 946
127.0.0.1 - - [11/Feb/2014:17:27:19 +0530] "POST /SpringSimpleWebApp/login.do?msg=Redirect+Successful%21%21 HTTP/1.1" 302 -
127.0.0.1 - - [11/Feb/2014:17:27:19 +0530] "GET /SpringSimpleWebApp/view.do?msg=Login+Successful%21%21 HTTP/1.1" 200 3546
127.0.0.1 - - [11/Feb/2014:17:28:59 +0530] "GET /SpringSimpleWebApp/ HTTP/1.1" 200 549
127.0.0.1 - - [11/Feb/2014:17:28:59 +0530] "GET /favicon.ico HTTP/1.1" 404 988
127.0.0.1 - - [11/Feb/2014:17:28:59 +0530] "GET /favicon.ico HTTP/1.1" 404 988
127.0.0.1 - - [11/Feb/2014:17:29:00 +0530] "POST /SpringSimpleWebApp/;jsessionid=F92E89697CE298C0C75602128CF70713 HTTP/1.1" 302 -
127.0.0.1 - - [11/Feb/2014:17:29:00 +0530] "GET /SpringSimpleWebApp/login.do?msg=Redirect+Successful%21%21 HTTP/1.1" 200 946
127.0.0.1 - - [11/Feb/2014:17:29:01 +0530] "POST /SpringSimpleWebApp/login.do?msg=Redirect+Successful%21%21 HTTP/1.1" 302 -
127.0.0.1 - - [11/Feb/2014:17:29:02 +0530] "GET /SpringSimpleWebApp/view.do?msg=Login+Successful%21%21 HTTP/1.1" 200 3593
127.0.0.1 - - [11/Feb/2014:17:29:49 +0530] "GET /SpringSimpleWebApp/ HTTP/1.1" 200 549
127.0.0.1 - - [11/Feb/2014:17:29:49 +0530] "GET /favicon.ico HTTP/1.1" 404 988
127.0.0.1 - - [11/Feb/2014:17:29:49 +0530] "GET /favicon.ico HTTP/1.1" 404 988
127.0.0.1 - - [11/Feb/2014:17:29:49 +0530] "POST /SpringSimpleWebApp/;jsessionid=E51A9F1E771E2C754D596DA14E9C2386 HTTP/1.1" 302 -
127.0.0.1 - - [11/Feb/2014:17:29:50 +0530] "GET /SpringSimpleWebApp/login.do?msg=Redirect+Successful%21%21 HTTP/1.1" 200 946
127.0.0.1 - - [11/Feb/2014:17:29:51 +0530] "POST /SpringSimpleWebApp/login.do?msg=Redirect+Successful%21%21 HTTP/1.1" 302 -
127.0.0.1 - - [11/Feb/2014:17:29:51 +0530] "GET /SpringSimpleWebApp/view.do?msg=Login+Successful%21%21 HTTP/1.1" 200 3607
127.0.0.1 - - [11/Feb/2014:17:30:25 +0530] "GET /SpringSimpleWebApp/ HTTP/1.1" 200 549
127.0.0.1 - - [11/Feb/2014:17:30:25 +0530] "GET /favicon.ico HTTP/1.1" 404 988
127.0.0.1 - - [11/Feb/2014:17:30:25 +0530] "GET /favicon.ico HTTP/1.1" 404 988
127.0.0.1 - - [11/Feb/2014:17:30:26 +0530] "POST /SpringSimpleWebApp/;jsessionid=2026C5A28B0EC26CD2A02E24CE0B31AF HTTP/1.1" 302 -
127.0.0.1 - - [11/Feb/2014:17:30:26 +0530] "GET /SpringSimpleWebApp/login.do?msg=Redirect+Successful%21%21 HTTP/1.1" 200 946
127.0.0.1 - - [11/Feb/2014:17:30:27 +0530] "POST /SpringSimpleWebApp/login.do?msg=Redirect+Successful%21%21 HTTP/1.1" 302 -
127.0.0.1 - - [11/Feb/2014:17:30:28 +0530] "GET /SpringSimpleWebApp/view.do?msg=Login+Successful%21%21 HTTP/1.1" 200 3554
127.0.0.1 - - [11/Feb/2014:17:33:51 +0530] "GET / HTTP/1.1" 404 955
127.0.0.1 - - [11/Feb/2014:17:33:52 +0530] "GET /SpringSimpleWebApp/ HTTP/1.1" 200 549
127.0.0.1 - - [11/Feb/2014:17:33:53 +0530] "GET /favicon.ico HTTP/1.1" 404 988
127.0.0.1 - - [11/Feb/2014:17:33:53 +0530] "GET /favicon.ico HTTP/1.1" 404 988
127.0.0.1 - - [11/Feb/2014:17:33:54 +0530] "POST /SpringSimpleWebApp/;jsessionid=223CD13714B2CA4DAA2185C95DCC9699 HTTP/1.1" 302 -
127.0.0.1 - - [11/Feb/2014:17:33:54 +0530] "GET /SpringSimpleWebApp/login.do?msg=Redirect+Successful%21%21 HTTP/1.1" 200 946
127.0.0.1 - - [11/Feb/2014:17:33:55 +0530] "POST /SpringSimpleWebApp/login.do?msg=Redirect+Successful%21%21 HTTP/1.1" 302 -
127.0.0.1 - - [11/Feb/2014:17:33:57 +0530] "GET /SpringSimpleWebApp/view.do?msg=Login+Successful%21%21 HTTP/1.1" 200 3607
127.0.0.1 - - [11/Feb/2014:17:33:58 +0530] "GET /SpringSimpleWebApp/delete.do?val=all HTTP/1.1" 500 3239
127.0.0.1 - - [11/Feb/2014:17:35:27 +0530] "GET / HTTP/1.1" 404 955
127.0.0.1 - - [11/Feb/2014:17:35:28 +0530] "GET /SpringSimpleWebApp/ HTTP/1.1" 200 549
127.0.0.1 - - [11/Feb/2014:17:35:28 +0530] "GET /favicon.ico HTTP/1.1" 404 988
127.0.0.1 - - [11/Feb/2014:17:35:28 +0530] "GET /favicon.ico HTTP/1.1" 404 988
127.0.0.1 - - [11/Feb/2014:17:35:29 +0530] "POST /SpringSimpleWebApp/;jsessionid=85E7B85C164FAA4BFE0800DDB99495EF HTTP/1.1" 302 -
127.0.0.1 - - [11/Feb/2014:17:35:29 +0530] "GET /SpringSimpleWebApp/login.do?msg=Redirect+Successful%21%21 HTTP/1.1" 200 946
127.0.0.1 - - [11/Feb/2014:17:35:31 +0530] "POST /SpringSimpleWebApp/login.do?msg=Redirect+Successful%21%21 HTTP/1.1" 302 -
127.0.0.1 - - [11/Feb/2014:17:35:32 +0530] "GET /SpringSimpleWebApp/view.do?msg=Login+Successful%21%21 HTTP/1.1" 200 3564
127.0.0.1 - - [11/Feb/2014:17:35:47 +0530] "GET /SpringSimpleWebApp/delete.do?val=1 HTTP/1.1" 200 2407
127.0.0.1 - - [11/Feb/2014:17:35:49 +0530] "GET /SpringSimpleWebApp/view.do HTTP/1.1" 200 3120
127.0.0.1 - - [11/Feb/2014:17:40:40 +0530] "GET /SpringSimpleWebApp/ HTTP/1.1" 200 505
127.0.0.1 - - [11/Feb/2014:17:40:41 +0530] "POST /SpringSimpleWebApp/ HTTP/1.1" 302 -
127.0.0.1 - - [11/Feb/2014:17:40:41 +0530] "GET /SpringSimpleWebApp/login.do?msg=Redirect+Successful%21%21 HTTP/1.1" 200 946
127.0.0.1 - - [11/Feb/2014:17:40:43 +0530] "POST /SpringSimpleWebApp/login.do?msg=Redirect+Successful%21%21 HTTP/1.1" 302 -
127.0.0.1 - - [11/Feb/2014:17:40:43 +0530] "GET /SpringSimpleWebApp/view.do?msg=Login+Successful%21%21 HTTP/1.1" 200 3241
127.0.0.1 - - [11/Feb/2014:17:40:47 +0530] "GET /SpringSimpleWebApp/delete.do?val=14 HTTP/1.1" 200 2528
127.0.0.1 - - [11/Feb/2014:17:40:50 +0530] "GET /SpringSimpleWebApp/view.do HTTP/1.1" 200 2801
127.0.0.1 - - [11/Feb/2014:17:40:51 +0530] "GET /SpringSimpleWebApp/add.do HTTP/1.1" 200 1725
127.0.0.1 - - [11/Feb/2014:17:41:22 +0530] "GET / HTTP/1.1" 404 955
127.0.0.1 - - [11/Feb/2014:17:41:23 +0530] "GET /SpringSimpleWebApp/ HTTP/1.1" 200 505
127.0.0.1 - - [11/Feb/2014:17:44:58 +0530] "GET / HTTP/1.1" 404 955
127.0.0.1 - - [11/Feb/2014:17:44:59 +0530] "GET /SpringSimpleWebApp/ HTTP/1.1" 200 549
127.0.0.1 - - [11/Feb/2014:17:44:59 +0530] "GET /favicon.ico HTTP/1.1" 404 988
127.0.0.1 - - [11/Feb/2014:17:44:59 +0530] "GET /favicon.ico HTTP/1.1" 404 988
127.0.0.1 - - [11/Feb/2014:17:45:00 +0530] "POST /SpringSimpleWebApp/;jsessionid=FF8EF9AE2EC5CB4CE4C2C482F3A79A01 HTTP/1.1" 302 -
127.0.0.1 - - [11/Feb/2014:17:45:00 +0530] "GET /SpringSimpleWebApp/login.do?msg=Redirect+Successful%21%21 HTTP/1.1" 200 946
127.0.0.1 - - [11/Feb/2014:17:45:02 +0530] "POST /SpringSimpleWebApp/login.do?msg=Redirect+Successful%21%21 HTTP/1.1" 302 -
127.0.0.1 - - [11/Feb/2014:17:45:03 +0530] "GET /SpringSimpleWebApp/view.do?msg=Login+Successful%21%21 HTTP/1.1" 200 2801
127.0.0.1 - - [11/Feb/2014:17:45:04 +0530] "GET /SpringSimpleWebApp/add.do HTTP/1.1" 200 1725
127.0.0.1 - - [11/Feb/2014:17:45:09 +0530] "POST /SpringSimpleWebApp/add.do HTTP/1.1" 200 2659
127.0.0.1 - - [11/Feb/2014:17:45:10 +0530] "GET /SpringSimpleWebApp/view.do HTTP/1.1" 200 3230
127.0.0.1 - - [11/Feb/2014:17:45:10 +0530] "GET /SpringSimpleWebApp/add.do HTTP/1.1" 200 1725
127.0.0.1 - - [11/Feb/2014:17:45:15 +0530] "POST /SpringSimpleWebApp/add.do HTTP/1.1" 200 2659
127.0.0.1 - - [11/Feb/2014:17:45:16 +0530] "GET /SpringSimpleWebApp/view.do HTTP/1.1" 200 3662
127.0.0.1 - - [11/Feb/2014:17:45:33 +0530] "GET /SpringSimpleWebApp/delete.do?val=2 HTTP/1.1" 200 2528
127.0.0.1 - - [11/Feb/2014:17:45:34 +0530] "GET /SpringSimpleWebApp/view.do HTTP/1.1" 200 3230
